				text	text	data	data	bss	bss
				absolute	difference	absolute	difference	absolute	difference
component	debug	QoS	profiling						
OS				214372	0	2272	0	63264	0
core	False			216636	2264	2272	0	63264	0
core	True			217716	3344	2272	0	63264	0
syncgroups	False			217196	2824	2272	0	63264	0
syncgroups	True			218708	4336	2272	0	63264	0
publish-subscribe	False	False	False	219180	4808	2272	0	63264	0
publish-subscribe	False	False	True	219868	5496	2272	0	63264	0
publish-subscribe	False	True	False	220628	6256	2272	0	63264	0
publish-subscribe	False	True	True	221452	7080	2272	0	63264	0
publish-subscribe	True	False	False	223316	8944	2272	0	63264	0
publish-subscribe	True	False	True	223900	9528	2272	0	63264	0
publish-subscribe	True	True	False	224948	10576	2272	0	63264	0
publish-subscribe	True	True	True	225652	11280	2272	0	63264	0
RPC	False	False	False	219524	5152	2272	0	63264	0
RPC	False	False	True	219796	5424	2272	0	63264	0
RPC	False	True	False	220236	5864	2272	0	63264	0
RPC	False	True	True	220540	6168	2272	0	63264	0
RPC	True	False	False	223004	8632	2272	0	63264	0
RPC	True	False	True	223324	8952	2272	0	63264	0
RPC	True	True	False	223740	9368	2272	0	63264	0
RPC	True	True	True	224052	9680	2272	0	63264	0
complete	False	False	False	222620	8248	2272	0	63264	0
complete	False	False	True	223556	9184	2272	0	63264	0
complete	False	True	False	224780	10408	2272	0	63264	0
complete	False	True	True	225884	11512	2272	0	63264	0
complete	True	False	False	229580	15208	2272	0	63264	0
complete	True	False	True	230468	16096	2272	0	63264	0
complete	True	True	False	231956	17584	2272	0	63264	0
complete	True	True	True	232948	18576	2272	0	63264	0
